{
  "AWS_CREDENTIAL" : {
       "accessKeyId": "AKIAIGKUPUJWGDQPE45Q",
       "secretAccessKey": "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",
       "region": "ap-southeast-1"
     },
  "ENVIRONTMENT" : "production",
  "SECRET_ACCESS_KEY" : "/1yDupyyxcJpkqlw8aVFkZywzrmmEw85kkDSohhj",
  "ACCESS_KEY" : "AKIAIZ56K7OWPXCLAOAQ",
  "REGION" : "ap-southeast-1",
  "NARU_BUCKET_NAME" : "temanberbagi",
  "NARU_BUCKET_KEY_NEWS" : "news",
  "NARU_BUCKET_KEY_PROMO" : "promo"
}
